rules/generated/MOVE	Largest	12	3	4	0
	Broadest	34	2	2	0
rules/manual/MOVE	Largest	0	0	0	0
	Broadest	0	0	0	0
rules/manual/UNSET	Largest	0	0	0	0
	Broadest	0	0	0	0
rules/generated/DELETE	Largest	2	3	4	0
	Broadest	7	2	2	0
rules/manual/CREATE	--- 
	--- 
rules/generated/SET	Largest	0	0	0	0
	Broadest	0	0	0	0
rules/generated/UNSET	Largest	0	0	0	0
	Broadest	0	0	0	0
rules/generated/ADD	Largest	2	2	2	0
	Broadest	2	2	2	0
rules/generated/CHANGE	Largest	5	0	0	1
	Broadest	11	0	0	1
rules/generated/REMOVE	Largest	2	2	2	0
	Broadest	2	2	2	0
rules/manual/SET	Largest	0	0	0	0
	Broadest	0	0	0	0
rules/manual/DELETE	Largest	2	6	9	0
	Broadest	3	6	7	0
rules/generated/CREATE	Largest	7	2	2	10
	Broadest	9	0	0	7
all	--- 
	--- 
