106502	1	2	1	0	39	88
	15	340	0	0	1	0
 22678	1	2	1	0	39	88
	15	340	0	0	1	0
 1697	2	2	2	0	7	49
	8	123	1	0	0	0
 119	1	2	1	0	18	33
	6	21	0	0	1	0
 12	2	2	1	0	4	7
	1	6	1	0	0	0
 2	2	2	1	0	1	4
	4	8	0	0	1	0
 2	2	2	1	0	1	2
	3	6	1	0	0	0
 1	2	2	1	0	1	1
	4	4	1	0	1	0
 3	3	3	1	0	1	2
	3	4	1	0	0	0
 12	2	2	1	0	1	6
	3	3	1	0	0	0
 3	1	2	1	0	1	2
	1	3	1	0	1	1
 11	2	2	1	0	6	53
	2	8	0	0	1	3
 10	2	2	1	0	2	19
	2	4	0	0	1	4
 3	2	2	1	0	1	11
	2	2	1	0	1	11
 12	1	2	1	0	1	2
	1	2	1	0	1	2
 0	2	2	1	0	1	1
	2	2	1	0	1	1
 2	1	4	1	0	2	2
	2	8	0	0	1	0
 1	2	2	1	0	0	0
	2	2	1	0	0	0
 9	1	2	1	0	1	10
	1	5	1	0	0	0
 932	1	2	0	0	1	14
	1	2	0	0	1	14
 10	1	2	1	0	4	0
	2	23	1	0	0	0
 3	2	2	1	0	0	0
	2	2	1	0	0	0
 