3600902	0	0	0	0	0	0
	0	0	0	0	0	0
 3600432	0	0	0	0	0	0
	0	0	0	0	0	0
 3600802	0	0	0	0	0	0
	0	0	0	0	0	0
 2241077	0	0	0	0	0	0
	0	0	0	0	0	0
 1329	2	2	1	0	4	7
	6	6	1	0	0	0
 123	2	2	1	0	1	4
	8	8	0	0	1	0
 44	2	2	1	0	1	2
	6	6	1	0	0	0
 32	2	2	1	0	1	1
	4	4	1	0	1	0
 71	3	3	1	0	1	2
	4	4	1	0	0	0
 1335	2	2	1	0	1	6
	3	3	1	0	0	0
 45	2	2	1	0	1	2
	3	3	1	0	1	1
 1931380	0	0	0	0	0	0
	0	0	0	0	0	0
 1892331	0	0	0	0	0	0
	0	0	0	0	0	0
 4543	2	2	1	0	1	11
	2	2	1	0	1	11
 144	2	2	1	0	1	2
	2	2	1	0	1	2
 2	2	2	1	0	1	1
	2	2	1	0	1	1
 33	4	4	1	0	2	2
	8	8	0	0	1	0
 1	2	2	1	0	0	0
	2	2	1	0	0	0
 2764	2	2	1	0	1	10
	5	5	1	0	0	0
 681488	2	2	0	0	1	14
	2	2	0	0	1	14
 106	2	2	1	0	4	0
	23	23	1	0	0	0
 4	2	2	1	0	0	0
	2	2	1	0	0	0
 