Measure2XHTML2 Measure2XHTML KM32Measure2 Measure2Table2 RefineAndMergeMeasure&5&29&42&0&11&36&110
TypeA2TypeB TypeA2TypeB2 TypeA2TypeB4 TypeA2TypeB3&4&10&10&4&0&12&16
TypeA2TypeB5 TypeA2TypeB8 TypeA2TypeB7 TypeA2TypeB6&4&9&10&0&0&11&13
UML22Measure UML22Measure2 KM32Measure3 KM32Measure&4&8&8&8&0&8&24
RemovingAnAssociationClass RedundantClassRemovable AssertionModification&3&31&31&11&0&39&94
CloneDr2CodeClone SimScan2CodeClone Simian2CodeClone&3&15&16&0&0&15&30
PathExp2TextualPathExp PathExp2PetriNet XML2PetriNet&3&13&13&9&1&17&43
UMLCD2UMLProfile UML2Copy&2&201&201&200&0&205&3121
Make2Ant Maven2Ant&2&35&35&2&4&36&98
MDL2GMF MDL2UML21&2&25&25&24&2&68&131
MySQL2KM3 UML2KM3&2&22&22&14&0&27&132
UML2Transformations2 UML2Transformations&2&15&15&0&0&17&80
ECore2Class EMF2KM3&2&12&12&1&0&12&37
XML2PNML PetriNet2PNML&2&9&9&4&0&30&55
SoftwareQualityControl2Bugzilla SoftwareQualityControl2Mantis&2&4&4&0&1&14&72
Tree2List2 Tree2List&2&3&3&2&0&4&6